8120;AK15H3;0,300000;0,500000;-0,100000;0,500000;1,750000;0,000000;
7634;AK14U2;0,418127;0,277502;-0,024783;1,241324;2,090620;0,000000;
7813;AK14Z2;0,300000;0,500000;-0,100000;0,500000;1,750000;0,000000;
8047;AF15H3;0,300000;0,500000;-0,100000;0,500000;1,750000;0,000000;
8119;AF14M3;0,300000;0,500000;-0,100000;0,500000;1,750000;0,000000;
7536;AF14U2;0,354333;0,423034;-0,014342;1,198471;2,351480;0,049544;
7949;AF19V2;0,357090;0,423228;-0,103241;0,557117;1,966492;0,000000;
8039;AF16X2;0,300000;0,500000;-0,100000;0,500000;1,750000;0,000000;
7581;AF14Z2;0,633795;0,443814;0,014220;1,000713;2,233282;0,000172;
8048;AL15H3;0,300000;0,500000;-0,100000;0,500000;1,750000;0,000000;
8121;AL14M3;0,300000;0,500000;-0,100000;0,500000;1,750000;0,000000;
7537;AL14U2;0,500000;0,600000;0,100000;3,000000;1,700000;0,000000;
7582;AL14Z2;0,466332;0,485904;0,002326;1,086346;2,050214;0,000034;
7583;BR22Z2;0,499800;0,400000;0,100000;1,200000;2,300000;0,000000;
8051;BR26F3;0,499000;0,400000;0,110000;1,000000;2,000000;0,000000;
8049;BR23G3;0,499800;0,400000;0,100000;1,000000;2,000000;0,000000;
8052;BR28H3;0,499000;0,400000;0,100000;1,000000;2,000000;0,000000;
8050;BR25J3;0,499000;0,400000;0,100000;1,000000;2,000000;0,000000;
8086;BR25K3;0,490000;0,400000;0,100000;1,000000;2,000000;0,000000;
8083;BR08U2;0,586637;0,613043;0,000000;2,561599;1,516951;0,000010;
8097;BR15U2;0,515137;0,369218;0,000000;5,000000;1,450000;0,000000;
8115;BR22U2;0,524138;0,483887;0,000263;0,848091;1,932792;0,000010;
7761;BR27U2;0,491218;0,320526;0,005405;2,565547;1,804580;0,000000;
7873;BR26V2;0,499000;0,500000;0,100000;1,500000;2,000000;0,000000;
7599;BR25X2;0,499000;0,500000;0,100000;1,400000;2,000000;0,000000;
8122;CH15H3;0,300000;0,500000;-0,100000;0,500000;1,750000;0,000000;
7636;CH14U2;0,250000;0,400000;0,100000;3,000000;2,000000;0,000000;
7815;CH14Z2;0,300000;0,500000;-0,100000;0,500000;1,750000;0,000000;
8053;CR16H3;0,467007;0,457321;-0,008475;1,043334;2,327520;0,000013;
8104;CR15M3;0,300000;0,500000;-0,100000;0,500000;1,750000;0,000000;
8016;CR08U2;0,182777;0,629445;0,000000;4,401379;1,330000;0,000000;
7868;CR15U2;0,156060;0,596550;-0,006262;5,600837;1,585362;0,000000;
8032;CR22U2;0,188513;0,745518;-0,011480;0,302627;1,260865;0,000000;
8091;CR29U2;0,300000;0,500000;-0,100000;0,500000;1,750000;0,000000;
8098;CR06V2;0,300000;0,500000;-0,100000;0,500000;1,750000;0,000000;
8116;CR13V2;0,300000;0,500000;-0,100000;0,500000;1,750000;0,000000;
7953;CR20V2;1,000000;0,544228;-0,035828;1,018545;1,879087;0,000010;
8019;CR17X2;0,300000;0,500000;-0,100000;0,500000;1,750000;0,000000;
7869;CR15Z2;0,238423;0,579042;-0,022767;0,934251;1,700000;0,000830;
7673;Eu16H3;0,340000;0,400000;-0,300000;1,000000;2,000000;0,000000;
7804;Eu15M3;0,505319;0,385532;0,000478;0,469162;1,288769;0,000010;
7141;Eu15U2;0,300000;0,400000;-0,140000;2,000000;2,000000;0,000000;
8105;Eu21U3;0,300000;0,500000;-0,100000;0,500000;1,750000;0,000000;
7411;Eu15Z2;0,360000;0,400000;-0,200000;1,200000;2,000000;0,000000;
7621;ED15U2;0,120000;1,000000;0,010000;3,000000;2,000000;0,000000;
7836;ED15Z2;0,224385;0,468550;-0,108282;0,483099;1,794459;0,000000;
8123;FS15H3;0,300000;0,500000;-0,100000;0,500000;1,750000;0,000000;
7637;FS14U2;0,187331;0,287007;-0,245223;3,246865;1,975207;0,339767;
7817;FS14Z2;0,500000;0,500000;0,000010;1,000000;2,000000;0,000010;
8124;FV15H3;0,300000;0,500000;-0,100000;0,500000;1,750000;0,000000;
7638;FV14U2;0,495394;0,435251;0,011277;1,049259;1,875728;0,232952;
7818;FV14Z2;0,300000;0,500000;-0,100000;0,500000;1,750000;0,000000;
7985;FLV.GAZP_220914;0,440000;0,400000;0,250000;1,400000;2,000000;0,000000;
8070;FLV.GAZP_220921;0,440000;0,400000;0,250000;1,400000;2,000000;0,000000;
8078;FLV.GAZP_221005;0,440000;0,400000;0,250000;1,400000;2,000000;0,000000;
5156;FLV.GAZP_230215;0,440000;0,400000;0,250000;1,400000;2,000000;0,000000;
7587;GZ15H3;0,490169;0,356591;0,076117;0,833400;2,027919;0,000001;
7460;GZ19H5;0,500000;0,500000;0,000010;1,000000;2,000000;0,000010;
6813;GZ19M4;0,339094;0,300000;0,150000;0,500000;2,000000;0,000000;
7541;GZ14U2;0,407203;0,626861;0,000790;5,656749;1,535093;0,500000;
6973;GZ18U4;0,341140;0,653379;0,241423;1,574237;2,496561;0,000088;
7883;GZ17U5;0,341339;0,541325;-0,240812;0,555370;1,818703;0,000000;
8095;GZ21U2;0,550740;1,608558;0,109249;0,735590;2,500000;0,500000;
8111;GZ28U2;0,300000;0,500000;-0,100000;0,500000;1,750000;0,000000;
7956;GZ19V2;0,560898;0,277717;0,000000;3,970388;2,191361;-0,492513;
8040;GZ16X2;0,536312;0,533207;-0,150608;0,779375;2,499297;0,000000;
7586;GZ14Z2;0,440000;0,400000;0,250000;1,400000;2,000000;0,000000;
7226;GZ18Z4;0,358040;0,522884;-0,100081;0,470774;1,729238;0,000000;
7986;SPV.GAZP_220914;0,440000;0,400000;0,250000;1,400000;2,000000;0,000000;
8071;SPV.GAZP_220921;0,440000;0,400000;0,250000;1,400000;2,000000;0,000000;
8079;SPV.GAZP_221005;0,440000;0,400000;0,250000;1,400000;2,000000;0,000000;
5164;SPV.GAZP_230215;0,440000;0,400000;0,250000;1,400000;2,000000;0,000000;
7984;FLV.GMKN_220914;0,390000;0,400000;0,120000;2,000000;2,000000;0,000000;
7996;FLV.GMKN_220921;0,387739;0,397043;0,120410;1,992517;1,997034;0,000000;
8036;FLV.GMKN_220928;0,385478;0,394102;0,120830;1,984845;1,994010;0,000000;
4749;FLV.GMKN_221005;0,383217;0,391179;0,121260;1,976972;1,990921;0,000000;
4928;FLV.GMKN_221124;0,367062;0,371002;0,124659;1,913777;1,966465;0,000000;
4995;FLV.GMKN_221222;0,358006;0,360449;0,126847;1,871664;1,950305;0,000000;
5057;FLV.GMKN_230118;0,349263;0,351005;0,129185;1,825071;1,932474;0,000000;
5077;FLV.GMKN_230125;0,346994;0,348702;0,129831;1,811872;1,927433;0,000000;
5139;FLV.GMKN_230201;0,344724;0,346466;0,130495;1,798166;1,922205;0,000000;
5138;FLV.GMKN_230208;0,342454;0,344302;0,131178;1,783932;1,916789;0,000000;
5386;FLV.GMKN_230323;0,328489;0,332898;0,135811;1,683433;1,879134;0,000000;
5437;FLV.GMKN_230413;0,321659;0,328776;0,138383;1,625167;1,858024;0,000000;
5450;FLV.GMKN_231222;0,240000;0,270000;0,200000;1,000000;2,000000;0,000000;
4098;FLV.GMKN_240731;0,240000;0,270000;0,200000;1,000000;2,000000;0,000000;
4126;FLV.GMKN_240807;0,240000;0,270000;0,200000;1,000000;2,000000;0,000000;
4144;FLV.GMKN_240821;0,240000;0,270000;0,200000;1,000000;2,000000;0,000000;
4170;FLV.GMKN_240828;0,240000;0,270000;0,200000;1,000000;2,000000;0,000000;
4182;FLV.GMKN_240904;0,240000;0,270000;0,200000;1,000000;2,000000;0,000000;
4555;FLV.GMKN_240911;0,240000;0,270000;0,200000;1,000000;2,000000;0,000000;
4714;FLV.GMKN_240912;0,240000;0,270000;0,200000;1,000000;2,000000;0,000000;
4713;FLV.GMKN_240925;0,240000;0,270000;0,200000;1,000000;2,000000;0,000000;
4725;FLV.GMKN_241002;0,240000;0,270000;0,200000;1,000000;2,000000;0,000000;
4782;FLV.GMKN_241016;0,240000;0,270000;0,200000;1,000000;2,000000;0,000000;
4874;FLV.GMKN_241106;0,240000;0,270000;0,200000;1,000000;2,000000;0,000000;
4875;FLV.GMKN_241113;0,240000;0,270000;0,200000;1,000000;2,000000;0,000000;
4907;FLV.GMKN_241120;0,240000;0,270000;0,200000;1,000000;2,000000;0,000000;
4911;FLV.GMKN_241127;0,240000;0,270000;0,200000;1,000000;2,000000;0,000000;
4977;FLV.GMKN_241218;0,240000;0,270000;0,200000;1,000000;2,000000;0,000000;
5004;FLV.GMKN_241225;0,240000;0,270000;0,200000;1,000000;2,000000;0,000000;
5062;FLV.GMKN_250122;0,240000;0,270000;0,200000;1,000000;2,000000;0,000000;
5098;FLV.GMKN_250129;0,240000;0,270000;0,200000;1,000000;2,000000;0,000000;
5112;FLV.GMKN_250205;0,240000;0,270000;0,200000;1,000000;2,000000;0,000000;
5265;FLV.GMKN_250219;0,240000;0,270000;0,200000;1,000000;2,000000;0,000000;
5423;FLV.GMKN_250409;0,240000;0,270000;0,200000;1,000000;2,000000;0,000000;
5495;FLV.GMKN_250514;0,240000;0,270000;0,200000;1,000000;2,000000;0,000000;
5792;FLV.GMKN_250527;0,240000;0,270000;0,200000;1,000000;2,000000;0,000000;
5717;FLV.GMKN_250709;0,240000;0,270000;0,200000;1,000000;2,000000;0,000000;
5842;FLV.GMKN_250814;0,240000;0,270000;0,200000;1,000000;2,000000;0,000000;
8055;GK15H3;0,300000;0,500000;-0,100000;0,500000;1,750000;0,000000;
8125;GK14M3;0,300000;0,500000;-0,100000;0,500000;1,750000;0,000000;
7540;GK14U2;0,390000;0,400000;0,120000;2,000000;2,000000;0,000000;
7585;GK14Z2;0,354100;0,303594;0,079968;2,267631;2,298912;0,000000;
7987;SPV.GMKN_220914;0,390000;0,400000;0,120000;2,000000;2,000000;0,000000;
8002;SPV.GMKN_220921;0,387739;0,397043;0,120410;1,992517;1,997034;0,000000;
8037;SPV.GMKN_220928;0,385478;0,394102;0,120830;1,984845;1,994010;0,000000;
4757;SPV.GMKN_221005;0,383217;0,391179;0,121260;1,976972;1,990921;0,000000;
4933;SPV.GMKN_221124;0,367062;0,371002;0,124659;1,913777;1,966465;0,000000;
5003;SPV.GMKN_221222;0,358006;0,360449;0,126847;1,871664;1,950305;0,000000;
5061;SPV.GMKN_230118;0,349263;0,351005;0,129185;1,825071;1,932474;0,000000;
5085;SPV.GMKN_230125;0,346994;0,348702;0,129831;1,811872;1,927433;0,000000;
5145;SPV.GMKN_230201;0,344724;0,346466;0,130495;1,798166;1,922205;0,000000;
5146;SPV.GMKN_230208;0,342454;0,344302;0,131178;1,783932;1,916789;0,000000;
5388;SPV.GMKN_230323;0,328489;0,332898;0,135811;1,683433;1,879134;0,000000;
5438;SPV.GMKN_230413;0,321659;0,328776;0,138383;1,625167;1,858024;0,000000;
4656;SPV.GMKN_240731;0,240000;0,270000;0,200000;1,000000;2,000000;0,000000;
4657;SPV.GMKN_240807;0,240000;0,270000;0,200000;1,000000;2,000000;0,000000;
4658;SPV.GMKN_240821;0,240000;0,270000;0,200000;1,000000;2,000000;0,000000;
4659;SPV.GMKN_240828;0,240000;0,270000;0,200000;1,000000;2,000000;0,000000;
4660;SPV.GMKN_240904;0,240000;0,270000;0,200000;1,000000;2,000000;0,000000;
4661;SPV.GMKN_240911;0,240000;0,270000;0,200000;1,000000;2,000000;0,000000;
4716;SPV.GMKN_240925;0,240000;0,270000;0,200000;1,000000;2,000000;0,000000;
4726;SPV.GMKN_241002;0,240000;0,270000;0,200000;1,000000;2,000000;0,000000;
4785;SPV.GMKN_241016;0,240000;0,270000;0,200000;1,000000;2,000000;0,000000;
4883;SPV.GMKN_241106;0,240000;0,270000;0,200000;1,000000;2,000000;0,000000;
4884;SPV.GMKN_241113;0,240000;0,270000;0,200000;1,000000;2,000000;0,000000;
4906;SPV.GMKN_241120;0,240000;0,270000;0,200000;1,000000;2,000000;0,000000;
4913;SPV.GMKN_241127;0,240000;0,270000;0,200000;1,000000;2,000000;0,000000;
4978;SPV.GMKN_241218;0,240000;0,270000;0,200000;1,000000;2,000000;0,000000;
5009;SPV.GMKN_241225;0,240000;0,270000;0,200000;1,000000;2,000000;0,000000;
5066;SPV.GMKN_250122;0,240000;0,270000;0,200000;1,000000;2,000000;0,000000;
5100;SPV.GMKN_250129;0,240000;0,270000;0,200000;1,000000;2,000000;0,000000;
5128;SPV.GMKN_250205;0,240000;0,270000;0,200000;1,000000;2,000000;0,000000;
5266;SPV.GMKN_250219;0,240000;0,270000;0,200000;1,000000;2,000000;0,000000;
5424;SPV.GMKN_250409;0,240000;0,270000;0,200000;1,000000;2,000000;0,000000;
5499;SPV.GMKN_250514;0,240000;0,270000;0,200000;1,000000;2,000000;0,000000;
5800;SPV.GMKN_250527;0,240000;0,270000;0,200000;1,000000;2,000000;0,000000;
5720;SPV.GMKN_250709;0,240000;0,270000;0,200000;1,000000;2,000000;0,000000;
5847;SPV.GMKN_250814;0,240000;0,270000;0,200000;1,000000;2,000000;0,000000;
8054;GD16H3;0,220230;0,501306;-0,098692;0,500161;1,750807;0,000000;
7539;GD15U2;0,170822;0,500000;0,000000;3,000000;1,800000;0,000000;
7584;GD15Z2;0,170000;0,400000;-0,050000;1,500000;2,000000;0,000000;
8056;HO22H3;0,300000;0,500000;-0,100000;0,500000;1,750000;0,000000;
8126;HO21M3;0,300000;0,500000;-0,100000;0,500000;1,750000;0,000000;
7870;HO21U2;0,262012;0,508202;-0,098162;0,512454;1,767544;0,000000;
7871;HO21Z2;0,300000;0,500000;-0,100000;0,500000;1,750000;0,000000;
8127;HY15H3;0,300000;0,500000;-0,100000;0,500000;1,750000;0,000000;
7639;HY14U2;0,355626;0,330252;0,013419;1,295404;2,354025;-0,391739;
7819;HY14Z2;0,300000;0,500000;-0,100000;0,500000;1,750000;0,000000;
8128;IR15H3;0,300000;0,500000;-0,100000;0,500000;1,750000;0,000000;
7640;IR14U2;0,662153;0,303745;0,062991;4,000000;2,497594;-0,500000;
7820;IR14Z2;0,300000;0,500000;-0,100000;0,500000;1,750000;0,000000;
8023;FLV.LKOH_220914;0,300000;0,450000;0,100000;2,000000;2,000000;0,000000;
7995;FLV.LKOH_220921;0,300000;0,450000;0,100000;2,000000;2,000000;0,000000;
8077;FLV.LKOH_221005;0,300000;0,450000;0,100000;2,000000;2,000000;0,000000;
8057;LK15H3;0,396647;0,335124;-0,130842;0,677353;2,496806;0,000000;
8129;LK14M3;0,300000;0,500000;-0,100000;0,500000;1,750000;0,000000;
7542;LK14U2;0,300000;0,450000;0,100000;2,000000;2,000000;0,000000;
7957;LK19V2;0,487780;0,512212;-0,007828;1,151609;2,218564;0,000010;
8041;LK16X2;0,300000;0,500000;-0,100000;0,500000;1,750000;0,000000;
7588;LK14Z2;0,360000;0,400000;0,100000;2,500000;2,000000;0,000000;
8025;SPV.LKOH_220914;0,300000;0,450000;0,100000;2,000000;2,000000;0,000000;
8003;SPV.LKOH_220921;0,300000;0,450000;0,100000;2,000000;2,000000;0,000000;
8080;SPV.LKOH_221005;0,300000;0,450000;0,100000;2,000000;2,000000;0,000000;
8131;MG15H3;0,300000;0,500000;-0,100000;0,500000;1,750000;0,000000;
7642;MG14U2;0,519647;0,663840;-0,045565;1,591777;2,500000;0,000010;
7822;MG14Z2;0,300000;0,500000;-0,100000;0,500000;1,750000;0,000000;
8132;ML15H3;0,300000;0,500000;-0,100000;0,500000;1,750000;0,000000;
7643;ML14U2;0,519606;0,490168;-0,000997;1,008071;2,055824;0,000036;
7823;ML14Z2;0,668013;0,399254;0,086084;0,828829;1,987367;0,000020;
8022;FLV.MGNT_220914;0,300000;0,400000;0,070000;1,500000;2,000000;0,000000;
5122;FLV.MGNT_230331;0,250000;0,260000;0,200000;0,500000;2,000000;0,000000;
8058;MN15H3;0,300000;0,500000;-0,100000;0,500000;1,750000;0,000000;
8133;MN14M3;0,300000;0,500000;-0,100000;0,500000;1,750000;0,000000;
7543;MN14U2;0,300000;0,400000;0,070000;1,500000;2,000000;0,000000;
7589;MN14Z2;0,383531;0,485517;0,009109;1,068107;2,071226;0,000001;
8026;SPV.MGNT_220914;0,300000;0,400000;0,070000;1,500000;2,000000;0,000000;
7606;FLV.MM_260216;0,300000;0,300000;0,100000;1,500000;2,000000;0,000000;
7468;FLV.MM_261027;0,300000;0,300000;0,100000;1,500000;2,000000;0,000000;
7513;FLV.MM_261124;0,300000;0,300000;0,100000;1,500000;2,000000;0,000000;
7605;FLV.MM_261216;0,300000;0,300000;0,100000;1,500000;2,000000;0,000000;
8106;MM16H3;0,300000;0,500000;-0,100000;0,500000;1,750000;0,000000;
7461;MM20H5;0,505581;0,468169;-0,000427;0,877927;1,881140;0,000016;
6815;MM20M4;0,300000;0,500000;-0,100000;0,500000;1,750000;0,000000;
7644;MM15U2;0,400000;0,600000;0,100000;3,000000;1,700000;0,000000;
6974;MM19U4;0,272520;0,543311;-0,082541;0,544887;1,798108;0,000000;
7884;MM18U5;0,570930;0,517381;-0,001588;1,027776;2,003170;0,000002;
7924;MM20V2;0,582803;0,296162;-0,250000;0,250000;1,987095;0,000000;
8020;MM17X2;0,300000;0,500000;-0,100000;0,500000;1,750000;0,000000;
7800;MM15Z2;0,354192;2,000000;-0,243344;4,000000;2,500000;0,000000;
7227;MM19Z4;0,254039;0,697794;0,127697;0,774385;2,124329;0,000000;
7674;MX16H3;0,300000;0,500000;-0,100000;0,500000;1,750000;0,000000;
7805;MX15M3;0,300000;0,500000;-0,100000;0,500000;1,750000;0,000000;
7142;MX15U2;0,400000;0,600000;0,100000;3,000000;1,700000;0,000000;
8107;MX21U3;0,300000;0,500000;-0,100000;0,500000;1,750000;0,000000;
7925;MX20V2;0,300000;0,500000;-0,100000;0,500000;1,750000;0,000000;
8021;MX17X2;0,300000;0,500000;-0,100000;0,500000;1,750000;0,000000;
7413;MX15Z2;0,431444;0,271799;0,250000;0,281398;1,298315;0,000000;
7484;SPV.MM_261027;0,300000;0,300000;0,100000;1,500000;2,000000;0,000000;
7516;SPV.MM_261124;0,300000;0,300000;0,100000;1,500000;2,000000;0,000000;
7610;SPV.MM_261216;0,300000;0,300000;0,100000;1,500000;2,000000;0,000000;
5533;FLV.MOEX_230531;0,300000;0,500000;0,100000;3,000000;1,700000;0,000000;
8130;ME15H3;0,300000;0,500000;-0,100000;0,500000;1,750000;0,000000;
7641;ME14U2;0,300000;0,500000;0,100000;3,000000;1,700000;0,000000;
7821;ME14Z2;0,300000;0,500000;-0,100000;0,500000;1,750000;0,000000;
5536;SPV.MOEX_230531;0,300000;0,500000;0,100000;3,000000;1,700000;0,000000;
8059;MT15H3;0,300000;0,500000;-0,100000;0,500000;1,750000;0,000000;
8134;MT14M3;0,300000;0,500000;-0,100000;0,500000;1,750000;0,000000;
7544;MT14U2;0,250000;0,400000;0,080000;1,000000;2,000000;0,000000;
7590;MT14Z2;0,397787;0,515688;-0,000704;0,993975;1,939337;0,000000;
7970;NG27U2;0,858458;0,279304;0,133378;2,444591;1,592967;0,000009;
8087;NG26V2;0,822656;0,470078;-0,014625;0,908351;1,929975;0,000010;
8060;NM15H3;0,500000;0,500000;0,000010;1,000000;2,000000;0,000010;
8136;NM14M3;0,300000;0,500000;-0,100000;0,500000;1,750000;0,000000;
7545;NM14U2;0,580806;0,500000;0,060000;1,500000;1,800000;0,000000;
7591;NM14Z2;0,484526;0,492853;-0,001217;1,017617;2,019041;0,000115;
7998;FLV.NVTK_220921;0,330000;0,450000;0,100000;1,200000;2,000000;0,000000;
8075;FLV.NVTK_221005;0,330000;0,450000;0,100000;1,200000;2,000000;0,000000;
8135;NK15H3;0,300000;0,500000;-0,100000;0,500000;1,750000;0,000000;
7645;NK14U2;0,330000;0,450000;0,100000;1,200000;2,000000;0,000000;
7824;NK14Z2;0,582992;0,284085;-0,091083;0,340268;1,500458;0,000010;
8004;SPV.NVTK_220921;0,330000;0,450000;0,100000;1,200000;2,000000;0,000000;
8081;SPV.NVTK_221005;0,330000;0,450000;0,100000;1,200000;2,000000;0,000000;
8137;OZ15H3;0,300000;0,500000;-0,100000;0,500000;1,750000;0,000000;
7646;OZ14U2;0,339290;0,618633;0,002569;2,234048;1,276361;-0,000590;
7825;OZ14Z2;0,500000;0,500000;0,000010;1,000000;2,000000;0,000010;
8061;PT16H3;0,300000;0,500000;-0,100000;0,500000;1,750000;0,000000;
8108;PT15M3;0,300000;0,500000;-0,100000;0,500000;1,750000;0,000000;
7546;PT15U2;0,448765;0,487718;-0,012050;1,026187;2,096857;0,000000;
7592;PT15Z2;0,348451;0,498179;-0,090404;0,478615;1,692125;0,000000;
8139;PZ15H3;0,300000;0,500000;-0,100000;0,500000;1,750000;0,000000;
7648;PZ14U2;0,250000;0,200000;0,100000;2,000000;2,000000;0,000000;
7827;PZ14Z2;0,413945;0,382711;0,001759;0,542125;1,428250;0,000010;
8138;PO15H3;0,300000;0,500000;-0,100000;0,500000;1,750000;0,000000;
7647;PO14U2;1,000000;1,074737;0,250000;2,454595;2,500000;-0,000028;
7826;PO14Z2;0,874795;0,529279;-0,039702;0,987158;1,547217;0,000004;
8069;FLV.ROSN_220921;0,330000;0,300000;0,100000;3,000000;2,000000;0,000000;
8062;RN15H3;0,300000;0,500000;-0,100000;0,500000;1,750000;0,000000;
7462;RN19H5;0,275786;0,526381;-0,001958;1,022729;1,969162;0,000007;
8140;RN14M3;0,300000;0,500000;-0,100000;0,500000;1,750000;0,000000;
6816;RN19M4;0,410436;0,250000;0,132363;0,250000;1,250000;0,000000;
7547;RN14U2;0,330000;0,300000;0,100000;3,000000;2,000000;0,000000;
6975;RN18U4;0,297979;0,501608;-0,161696;0,491990;1,721447;0,000000;
7886;RN17U5;0,460911;0,401889;-0,089359;0,348027;1,499899;0,000000;
7593;RN14Z2;0,596683;0,491660;0,003490;1,001394;1,932201;0,001040;
7229;RN18Z4;0,127233;0,640391;0,030267;0,688345;1,956602;0,000000;
8072;SPV.ROSN_220921;0,330000;0,300000;0,100000;3,000000;2,000000;0,000000;
8141;RT15H3;0,300000;0,500000;-0,100000;0,500000;1,750000;0,000000;
7650;RT14U2;0,241240;0,603256;-0,003697;0,922675;1,696059;-0,058553;
7829;RT14Z2;0,628815;0,253925;-0,081029;1,544986;2,371985;0,000001;
7441;RI16H3;0,530000;0,400000;0,400000;1,000000;2,000000;0,000000;
7675;RI15M3;0,505885;0,502983;-0,000232;0,994065;1,987464;0,000025;
8092;RI08U2;0,518545;0,262479;0,007916;19,687806;1,504389;0,000000;
6915;RI15U2;0,458297;0,446684;0,054727;3,969912;1,958297;-0,499428;
7837;RI21U3;0,300000;0,500000;-0,100000;0,500000;1,750000;0,000000;
8100;RI22U2;0,431945;0,260976;0,149042;2,790624;1,252348;0,408372;
8117;RI29U2;0,483316;0,501383;0,000054;1,019094;2,019308;0,000019;
7958;RI20V2;0,489932;0,289636;0,131234;1,680765;1,480688;-0,331110;
8045;RI17X2;0,500000;0,500000;0,000010;1,000000;2,000000;0,000010;
6669;RI15Z2;0,477065;0,520361;0,305833;1,030127;1,700000;0,000000;
7976;FLV.SBER_220914;0,390000;0,300000;0,250000;1,400000;2,000000;0,000000;
7994;FLV.SBER_220921;0,390000;0,300000;0,250000;1,400000;2,000000;0,000000;
8035;FLV.SBER_220928;0,390000;0,300000;0,250000;1,400000;2,000000;0,000000;
8066;FLV.SBER_221005;0,390000;0,300000;0,250000;1,400000;2,000000;0,000000;
5072;FLV.SBER_230118;0,390000;0,300000;0,250000;1,400000;2,000000;0,000000;
5087;FLV.SBER_230125;0,390000;0,300000;0,250000;1,400000;2,000000;0,000000;
5167;FLV.SBER_230215;0,390000;0,300000;0,250000;1,400000;2,000000;0,000000;
5623;FLV.SBER_230621;0,390000;0,300000;0,250000;1,400000;2,000000;0,000000;
5743;FLV.SBER_230719;0,390000;0,300000;0,250000;1,400000;2,000000;0,000000;
5071;FLV.SBER_250122;0,390000;0,300000;0,250000;1,400000;2,000000;0,000000;
5111;FLV.SBER_250205;0,390000;0,300000;0,250000;1,400000;2,000000;0,000000;
7977;SPV.SBER_220914;0,390000;0,300000;0,250000;1,400000;2,000000;0,000000;
8005;SPV.SBER_220921;0,390000;0,300000;0,250000;1,400000;2,000000;0,000000;
8038;SPV.SBER_220928;0,390000;0,300000;0,250000;1,400000;2,000000;0,000000;
8067;SPV.SBER_221005;0,390000;0,300000;0,250000;1,400000;2,000000;0,000000;
5074;SPV.SBER_230118;0,390000;0,300000;0,250000;1,400000;2,000000;0,000000;
5095;SPV.SBER_230125;0,390000;0,300000;0,250000;1,400000;2,000000;0,000000;
5169;SPV.SBER_230215;0,390000;0,300000;0,250000;1,400000;2,000000;0,000000;
5626;SPV.SBER_230621;0,390000;0,300000;0,250000;1,400000;2,000000;0,000000;
5747;SPV.SBER_230719;0,390000;0,300000;0,250000;1,400000;2,000000;0,000000;
5075;SPV.SBER_250122;0,390000;0,300000;0,250000;1,400000;2,000000;0,000000;
5127;SPV.SBER_250205;0,390000;0,300000;0,250000;1,400000;2,000000;0,000000;
7595;SR15H3;0,415413;0,466232;-0,000379;1,041929;2,246446;0,000668;
7548;SR14U2;0,344914;1,016057;0,001523;3,056068;1,408452;0,000000;
8096;SR21U2;0,313997;0,266185;-0,238665;4,000000;2,500000;0,000001;
8114;SR28U2;0,450715;0,503465;-0,002933;1,258618;2,333610;0,000000;
7961;SR19V2;0,332030;0,321719;0,056787;1,155258;1,628662;-0,500000;
8043;SR16X2;0,318674;0,271126;-0,041538;0,289282;1,339356;0,000000;
7594;SR14Z2;0,390000;0,300000;0,250000;1,400000;2,000000;0,000000;
8144;SP15H3;0,300000;0,500000;-0,100000;0,500000;1,750000;0,000000;
7654;SP14U2;0,350000;0,400000;0,100000;2,000000;2,000000;0,000000;
7833;SP14Z2;0,536279;0,250000;-0,024742;0,250000;1,250000;-0,000025;
7655;SV15U2;0,310000;0,400000;0,000000;3,000000;1,800000;0,000000;
7839;SV15Z2;0,492103;0,734220;-0,051304;0,629423;1,250000;-0,000002;
8143;SN15H3;0,300000;0,500000;-0,100000;0,500000;1,750000;0,000000;
7653;SN14U2;0,300000;0,400000;0,100000;3,000000;2,000000;0,000000;
7832;SN14Z2;0,300000;0,500000;-0,100000;0,500000;1,750000;0,000000;
8068;FLV.SNGSP_220921;0,300000;0,400000;0,200000;1,000000;2,000000;0,000000;
8142;SG15H3;0,300000;0,500000;-0,100000;0,500000;1,750000;0,000000;
7651;SG14U2;0,300000;0,400000;0,200000;1,000000;2,000000;0,000000;
7959;SG19V2;0,269953;0,315818;-0,190483;0,442009;1,745127;0,000000;
8042;SG16X2;0,300000;0,500000;-0,100000;0,500000;1,750000;0,000000;
7830;SG14Z2;0,293760;0,490904;-0,082905;0,495774;1,785686;0,000000;
8073;SPV.SNGSP_220921;0,300000;0,400000;0,200000;1,000000;2,000000;0,000000;
8109;SF17H3;0,300000;0,500000;-0,100000;0,500000;1,750000;0,000000;
7622;SF16U2;0,257733;0,600000;0,100000;1,800000;2,000000;0,000000;
7897;SF16Z2;0,312276;0,322245;0,112949;2,180862;1,864921;0,000000;
8063;TT15H3;0,300000;0,500000;-0,100000;0,500000;1,750000;0,000000;
8147;TT14M3;0,300000;0,500000;-0,100000;0,500000;1,750000;0,000000;
7549;TT14U2;0,270000;0,380000;0,100000;1,000000;2,000000;0,000000;
7596;TT14Z2;0,500000;0,500000;0,000010;1,000000;2,000000;0,000010;
8145;TI15H3;0,300000;0,500000;-0,100000;0,500000;1,750000;0,000000;
7656;TI14U2;0,511732;0,493955;-0,000652;1,005393;2,035168;0,000019;
7834;TI14Z2;0,300000;0,500000;-0,100000;0,500000;1,750000;0,000000;
8146;TN15H3;0,300000;0,500000;-0,100000;0,500000;1,750000;0,000000;
7657;TN14U2;0,300000;0,500000;-0,100000;0,500000;1,750000;0,000000;
7835;TN14Z2;0,300000;0,500000;-0,100000;0,500000;1,750000;0,000000;
8094;GZ14U2s;1,000000;0,473742;0,000230;0,934447;1,964041;0,000010;
8110;GZ21U2s;0,300000;0,500000;-0,100000;0,500000;1,750000;0,000000;
8113;NA17H3;0,300000;0,500000;-0,100000;0,500000;1,750000;0,000000;
8112;NA16Z2;0,577615;0,482658;0,008397;0,939647;1,927911;0,000000;
8102;W430U2;0,398764;0,250000;0,250000;0,250000;1,856053;0,000000;
8103;W431V2;0,300000;0,500000;-0,100000;0,500000;1,750000;0,000000;
7442;Si16H3;0,370000;0,350000;-0,150000;1,200000;2,000000;0,000000;
7676;Si15M3;0,375000;0,400000;-0,150000;1,000000;2,000000;0,000000;
8093;Si08U2;0,236829;0,335062;-0,000768;20,025555;1,399386;0,000000;
6916;Si15U2;0,269895;0,380076;-0,013474;6,393097;2,337296;0,000000;
7838;Si21U3;0,380000;0,400000;-0,150000;1,000000;2,000000;0,000000;
8101;Si22U2;0,248368;1,208131;-0,008507;1,514812;1,371864;0,000000;
8118;Si29U2;0,299318;0,501622;-0,099668;0,503811;1,757489;0,000000;
7960;Si20V2;0,280238;1,384209;-0,063096;1,010004;1,933623;-0,427153;
8046;Si17X2;0,303463;0,817341;0,016560;0,825851;1,614663;-0,000879;
7185;Si15Z2;0,312852;0,284720;-0,091897;2,221989;2,444703;0,000000;
8024;FLV.VTBR_220914;0,440000;0,400000;0,120000;2,000000;2,000000;0,000000;
8084;FLV.VTBR_220921;0,440000;0,400000;0,120000;2,000000;2,000000;0,000000;
8076;FLV.VTBR_221005;0,440000;0,400000;0,120000;2,000000;2,000000;0,000000;
8027;SPV.VTBR_220914;0,440000;0,400000;0,120000;2,000000;2,000000;0,000000;
8085;SPV.VTBR_220921;0,440000;0,400000;0,120000;2,000000;2,000000;0,000000;
8082;SPV.VTBR_221005;0,440000;0,400000;0,120000;2,000000;2,000000;0,000000;
8064;VB15H3;0,500000;0,500000;0,000010;1,000000;2,000000;0,000010;
8148;VB14M3;0,300000;0,500000;-0,100000;0,500000;1,750000;0,000000;
7550;VB14U2;0,440000;0,400000;0,120000;2,000000;2,000000;0,000000;
7962;VB19V2;0,536593;0,634122;-0,000139;2,460904;1,250900;0,021716;
8044;VB16X2;0,327772;0,505043;-0,102765;0,480854;1,720816;0,000000;
7597;VB14Z2;0,633742;0,300000;0,250000;1,000000;2,000000;0,000000;
8065;YN15H3;0,300000;0,500000;-0,100000;0,500000;1,750000;0,000000;
8149;YN14M3;0,300000;0,500000;-0,100000;0,500000;1,750000;0,000000;
7551;YN14U2;0,307510;0,757138;-0,067490;0,775994;1,250000;0,004450;
7598;YN14Z2;0,546152;0,428231;-0,011077;1,063643;2,414609;0,000000;
